5
5894 Lamborgini Dnipro 400 0.4
8765 Opel Maryanskoe 120 0.1 
9403 Mercedes Zaporozhie 400 0.3  
4567 Audi Kyiv 360 0.5  
2042 Toyota Kamenskoe 320 0.2   
Kolomoets 1 450
Nedrya 2 475
Negoda 3 500
Digtyar 4 525
Babenko 5 550
15 Kizlyarskaya 23.12.2015 300 20
20 Yaroslavskaya 24.01.2016 325 25
25 Vernadskogo 25.02.2017 350 30
30 Gogolya 26.03.2018 400 35
35 Shevchenka 27.04.2019 450 40